id;identification;first_name;last_name;age;birthd_date;address;phone_number;marital_status;spouse_identification;spouse_full_name;credit_subject
1;Asistente;Daniel;Muñoz;25;1998-05-20;Centrado Madera;de;Auto;experiences;Yemen;true
2;scale Granito;Ariadna;Caldera;28;1998-05-20;mobile Directo Travesía;Administrador Profundo emulación;bypass Aragón Riera;escalable Enfocado Navarra;transmit;false
3;Guapo;Andrés;Moreno;35;1998-05-20;synthesize Lilangeni initiatives;Normas;Loan Jefe;RSS COM;Barrio Loan Ergonómico;false
4;bypass Gorro Berkshire;Gilberto;Molina;29;1998-05-20;transmitting Irlanda;Métricas Camiseta Granito;Mesa;Salchichas;Terrenos;true
5;Virtual channels invoice;Elena;Cantú;27;1998-05-20;intuitive Negro Pequeño;transicional Madera wireless;Informática Open-source parsing;New Humano;deposit haptic Inversor;false
6;Marca RAM Global;Roberto;Rael;36;1998-05-20;Salchichas interfaz indexing;transmitter Amarillo Ejecutivo;up neural;Negro;Rioja Jardines microchip;true
7;Fantástico transmit;Alejandra;Coronado;50;1998-05-20;Bacon Camino;Hormigon calculate Vía;Comunidad e-tailers;system payment La;País;false
8;SSL;Mateo;Salinas;40;1998-05-20;Inteligente;Humano parsing Fantástico;optimizada Hormigon;Italia Soluciones;blockchains;true
9;Avon;Blanca;Rodríguez;42;1998-05-20;Loan;Arquitecto;Mascotas;Total;invoice;false
10;networks Buckinghamshire;Lilia;Vallejo;46;1998-05-20;hacking embrace;colaboración Cliente;Belarussian;monitor Artesanal up;Pescado Tenge;false
