id;license_plate;model;chasis_number;type;cylinder_capacity;appraisal
1;SMS Papelería;Visionario;53567;Panamá;77745;Salchichas Avon Account
2;overriding;Bedfordshire Violeta;99308;payment;47291;Deportes index Arquitecto
3;Jefe Riyal programming;Investment Avon parsing;57476;Navarra neural;84085;Tugrik intranet
4;Account COM Representante;Marca;27375;Rústico Queso tangible;55531;Andalucía
5;Raton Pizza Camino;copying;5501;PNG;26997;Interacciones
6;ROI;Pescado applications Rojo;93086;Representante drive Clonado;21501;Guantes
7;cultivate Comunidad;virtual Savings;91934;Violeta Monitorizado Metal;73200;out-of-the-box benchmark
8;Account;compress;26664;Regional;13295;Ferrocarril
9;target;haptic extranet;51516;Jefe Polígono;65204;Cuentas quantifying
10;redefine;alarm integrated Humano;81655;Relacciones bypass;23900;index
